,placeName_orig,placeName_reg,link,source,lat,long
0,Lernam,Lerne,https://pleiades.stoa.org/places/570424,Pleiades,37.5512409,22.7183258
1,Cyniphii,Cinyps,https://pleiades.stoa.org/places/344414,Pleiades,32.3129559997,14.1451676755
2,Scythicum,Scythie,https://pleiades.stoa.org/places/1273,Pleiades,46.6887007082,29.4750990378
3,Sicaniis,Sicile,https://pleiades.stoa.org/places/462492,Pleiades,37.6281816277,13.9839466817
4,Schondiacis,Scandinavie,https://www.geonames.org/2614165/scandinavia.html,GeoNames,63,12
5,Solymi,Jérusalem,https://pleiades.stoa.org/places/687928,Pleiades,31.776679,35.234156
6,Palestinæ,Palestine,https://www.geonames.org/12047392/palestine.html,GeoNames,31.65393,35.10352
7,Stygia,Styx,https://pleiades.stoa.org/places/570698,Pleiades,38.25,22.25
8,Byrsæ,Byrse,https://pleiades.stoa.org/places/560130183,Pleiades,36.8526091945,10.3235170557
9,Olympum,Olympe,https://pleiades.stoa.org/places/491677,Pleiades,40.085556,22.358611
10,Siculi,Sicile,https://pleiades.stoa.org/places/462492,Pleiades,37.6281816277,13.9839466817
11,Aprinam,abbaye d'Ebersmunster,https://www.geonames.org/11549147/kloster-ebersmuenster.html,GeoName,48.31123,7.52724
12,Nouientum,abbaye d'Ebersmunster,https://www.geonames.org/11549147/kloster-ebersmuenster.html,GeoName,48.31123,7.52724
13,Slestadium,Sélestat,https://www.geonames.org/2975233/selestat.html,GeoNames,48.26195,7.4489
14,Argentorati,Strasbourg,https://www.geonames.org/2973783/strasbourg.html,GeoNames,48.58392,7.74553
15,Vlrichi Rappoldiacæ,Saint-Ulrich,https://www.geonames.org/11966972/chateau-de-saint-ulrich.html,GeoNames,48.20291,7.30516
16,Benfeldum,Benfeld,https://www.geonames.org/3033488/benfeld.html,GeoNames,48.37062,7.5937
17,Slestadii,Sélestat,https://www.geonames.org/2975233/selestat.html,GeoNames,48.26195,7.4489
18,Helicona,Hélicon,https://pleiades.stoa.org/places/540808,Pleiades,38.352778,22.8225
19,Roma,Rome,https://pleiades.stoa.org/places/423025,Pleiades,41.891775,12.486137
