,n.,DDDD%,n.,SDDD%,n.,DSDD%,n.,DDSD%,n.,DDDS%,n.,SSDD%,n.,SDSD%,n.,SDDS%,n.,DSSD%,n.,DSDS%,n.,DDSS%,n.,SSSD%,n.,SDSS%,n.,SSDS%,n.,DSSS%,n.,SSSS%
Wholecorpus(187761),5363,2.86,3739,1.99,8421,4.48,10877,5.79,13160,7.01,4074,2.17,7571,4.03,9979,5.31,12202,6.50,23293,12.40,22392,11.92,4238,2.26,16785,8.94,11608,6.18,24824,13.22,8721,4.64
LIV. ANDR.(3),1,33.33,0,0,0,0,0,0,0,0,0,0,0,0,0,0,0,0,0,0,1,33.33,0,0,0,0,0,0,1,33.33,0,0
carm. frg.(3),1,33.33,0,0,0,0,0,0,0,0,0,0,0,0,0,0,0,0,0,0,1,33.33,0,0,0,0,0,0,1,33.33,0,0
PLAVT.(3),0,0,0,0,0,0,0,0,1,33.33,0,0,0,0,0,0,0,0,0,0,0,0,0,0,0,0,0,0,0,0,2,66.67
epigr.(3),0,0,0,0,0,0,0,0,1,33.33,0,0,0,0,0,0,0,0,0,0,0,0,0,0,0,0,0,0,0,0,2,66.67
ENN.(540),24,4.44,16,2.96,17,3.15,24,4.44,29,5.37,18,3.33,24,4.44,25,4.63,29,5.37,26,4.81,29,5.37,26,4.81,42,7.78,37,6.85,43,7.96,74,13.70
ann.(470),22,4.68,15,3.19,13,2.76,18,3.83,25,5.32,15,3.19,21,4.47,21,4.47,28,5.96,22,4.68,22,4.68,23,4.89,41,8.72,35,7.45,41,8.72,71,15.11
dub.(13),0,0,0,0,1,7.69,1,7.69,1,7.69,1,7.69,1,7.69,1,7.69,0,0,0,0,0,0,1,7.69,0,0,0,0,1,7.69,1,7.69
spur.(33),1,3.03,0,0,1,3.03,3,9.09,1,3.03,0,0,2,6.06,2,6.06,0,0,2,6.06,4,12.12,2,6.06,1,3.03,1,3.03,0,0,1,3.03
sat.(7),0,0,1,14.28,0,0,1,14.28,0,0,1,14.28,0,0,0,0,0,0,0,0,1,14.28,0,0,0,0,1,14.28,0,0,0,0
uar.(15),1,6.67,0,0,2,13.33,0,0,1,6.67,1,6.67,0,0,1,6.67,1,6.67,2,13.33,2,13.33,0,0,0,0,0,0,1,6.67,1,6.67
trag.(1),0,0,0,0,0,0,1,100,0,0,0,0,0,0,0,0,0,0,0,0,0,0,0,0,0,0,0,0,0,0,0,0
praetext.(1),0,0,0,0,0,0,0,0,1,100,0,0,0,0,0,0,0,0,0,0,0,0,0,0,0,0,0,0,0,0,0,0
PLAVTIVS(4),0,0,0,0,0,0,0,0,1,25.00,0,0,0,0,0,0,0,0,0,0,0,0,0,0,1,25.00,2,50.00,0,0,0,0
HOST.(6),0,0,0,0,0,0,0,0,1,16.67,0,0,0,0,1,16.67,1,16.67,0,0,1,16.67,0,0,0,0,1,16.67,1,16.67,0,0
LVCIL.(619),10,1.61,16,2.58,22,3.55,25,4.04,31,5.01,13,2.10,31,5.01,48,7.75,24,3.88,47,7.59,43,6.95,29,4.68,102,16.48,47,7.59,70,11.31,61,9.85
ACC.(9),1,11.11,1,11.11,0,0,0,0,2,22.22,0,0,1,11.11,1,11.11,0,0,1,11.11,1,11.11,0,0,0,0,0,0,1,11.11,0,0
carm. frg.(9),1,11.11,1,11.11,0,0,0,0,2,22.22,0,0,1,11.11,1,11.11,0,0,1,11.11,1,11.11,0,0,0,0,0,0,1,11.11,0,0
VAL. SOR.(3),1,33.33,0,0,0,0,0,0,0,0,0,0,0,0,0,0,1,33.33,0,0,1,33.33,0,0,0,0,0,0,0,0,0,0
SEV. NICAN.(2),0,0,0,0,0,0,0,0,0,0,0,0,0,0,0,0,0,0,0,0,0,0,0,0,0,0,0,0,1,50.00,1,50.00
FVR. ANT.(6),0,0,1,16.67,0,0,2,33.33,0,0,0,0,0,0,0,0,0,0,2,33.33,0,0,0,0,1,16.67,0,0,0,0,0,0
ATTA(1),0,0,0,0,0,0,0,0,0,0,0,0,0,0,0,0,0,0,1,100,0,0,0,0,0,0,0,0,0,0,0,0
carm. frg.(1),0,0,0,0,0,0,0,0,0,0,0,0,0,0,0,0,0,0,1,100,0,0,0,0,0,0,0,0,0,0,0,0
MAT.(7),0,0,0,0,0,0,0,0,1,14.28,0,0,0,0,0,0,0,0,1,14.28,1,14.28,0,0,0,0,0,0,1,14.28,2,28.57
NINN.(1),0,0,0,0,0,0,0,0,0,0,1,100,0,0,0,0,0,0,0,0,0,0,0,0,0,0,0,0,0,0,0,0
NAEV. IVN.(2),0,0,0,0,0,0,0,0,0,0,0,0,0,0,0,0,0,0,0,0,0,0,0,0,1,50.00,0,0,0,0,0,0
SVEIVS(8),0,0,0,0,0,0,0,0,0,0,0,0,0,0,1,12.50,1,12.50,0,0,2,25.00,0,0,1,12.50,1,12.50,1,12.50,1,12.50
LAEV.(2),1,50.00,0,0,0,0,0,0,0,0,0,0,0,0,0,0,0,0,0,0,0,0,0,0,1,50.00,0,0,0,0,0,0
GANN.(3),0,0,0,0,1,33.33,0,0,0,0,0,0,0,0,1,33.33,1,33.33,0,0,0,0,0,0,0,0,0,0,0,0,0,0
EGNAT.(3),0,0,0,0,0,0,0,0,1,33.33,0,0,0,0,0,0,0,0,0,0,1,33.33,0,0,0,0,0,0,1,33.33,0,0
VARRO(27),0,0,0,0,0,0,0,0,2,7.41,0,0,1,3.70,1,3.70,0,0,2,7.41,3,11.11,2,7.41,4,14.81,1,3.70,3,11.11,8,29.63
Men.(27),0,0,0,0,0,0,0,0,2,7.41,0,0,1,3.70,1,3.70,0,0,2,7.41,3,11.11,2,7.41,4,14.81,1,3.70,3,11.11,8,29.63
CIC.(748),6,0.8,10,1.34,10,1.34,23,3.07,45,6.02,11,1.47,24,3.21,47,6.28,28,3.74,50,6.68,108,14.44,20,2.67,96,12.83,44,5.88,135,18.05,86,11.50
carm. frg.(170),2,1.18,0,0,3,1.76,7,4.12,11,6.47,2,1.18,2,1.18,6,3.53,9,5.29,15,8.82,30,17.65,3,1.76,21,12.35,5,2.94,42,24.70,12,7.06
Arat. phaen.(551),3,0.54,8,1.45,7,1.27,16,2.90,31,5.63,8,1.45,22,3.99,39,7.08,19,3.45,33,5.99,73,13.25,16,2.90,70,12.70,38,6.90,90,16.33,73,13.25
Arat. progn.(27),1,3.70,2,7.41,0,0,0,0,3,11.11,1,3.70,0,0,2,7.41,0,0,2,7.41,5,18.52,1,3.70,5,18.52,1,3.70,3,11.11,1,3.70
Q. CIC.(20),0,0,0,0,0,0,4,20.00,2,10.00,1,5.00,0,0,0,0,0,0,2,10.00,4,20.00,0,0,1,5.00,0,0,5,25.00,1,5.00
LVCR.(7382),170,2.30,92,1.25,248,3.36,357,4.84,593,8.03,79,1.07,244,3.30,312,4.23,529,7.17,747,10.12,1085,14.70,142,1.92,661,8.95,224,3.03,1485,20.12,414,5.61
MEMM.(1),0,0,0,0,0,0,0,0,0,0,0,0,0,0,0,0,0,0,0,0,0,0,0,0,0,0,0,0,1,100,0,0
BIBAC.(13),0,0,0,0,0,0,0,0,1,7.69,0,0,0,0,2,15.38,1,7.69,1,7.69,4,30.77,0,0,1,7.69,1,7.69,0,0,1,7.69
CATVLL.(473),1,0.21,5,1.06,6,1.27,14,2.96,15,3.17,6,1.27,18,3.80,9,1.90,32,6.76,50,10.57,53,11.20,10,2.11,69,14.59,20,4.23,121,25.58,44,9.30
carm.(473),1,0.21,5,1.06,6,1.27,14,2.96,15,3.17,6,1.27,18,3.80,9,1.90,32,6.76,50,10.57,53,11.20,10,2.11,69,14.59,20,4.23,121,25.58,44,9.30
CALV.(7),1,14.28,0,0,0,0,0,0,0,0,0,0,0,0,0,0,1,14.28,0,0,2,28.57,0,0,0,0,1,14.28,1,14.28,1,14.28
VARR. AT.(43),1,2.32,1,2.32,1,2.32,2,4.65,5,11.63,2,4.65,1,2.32,1,2.32,3,6.98,6,13.95,6,13.95,1,2.32,7,16.28,1,2.32,1,2.32,2,4.65
CINNA(11),0,0,0,0,1,9.09,1,9.09,0,0,0,0,0,0,1,9.09,0,0,0,0,2,18.18,0,0,0,0,0,0,2,18.18,4,36.36
IVL. CAES.(6),0,0,1,16.67,0,0,0,0,0,0,0,0,0,0,0,0,1,16.67,0,0,2,33.33,0,0,0,0,0,0,1,16.67,1,16.67
VERG.(12857),298,2.32,257,2.00,474,3.69,632,4.91,862,6.70,308,2.39,498,3.87,738,5.74,786,6.11,1441,11.21,1521,11.83,375,2.92,1216,9.46,745,5.79,1844,14.34,862,6.70
ecl.(824),35,4.25,20,2.43,43,5.22,68,8.25,57,6.92,26,3.15,38,4.61,43,5.22,65,7.89,79,9.59,107,12.98,19,2.30,64,7.77,33,4.00,88,10.68,39,4.73
georg.(2189),51,2.33,42,1.92,77,3.52,105,4.80,135,6.17,53,2.42,87,3.97,115,5.25,155,7.08,262,11.97,254,11.60,55,2.51,210,9.59,119,5.44,343,15.67,126,5.76
Aen. proem.(4),0,0,0,0,1,25.00,0,0,0,0,0,0,0,0,0,0,0,0,0,0,1,25.00,0,0,1,25.00,0,0,1,25.00,0,0
Aen.(9840),212,2.15,195,1.98,353,3.59,459,4.66,670,6.81,229,2.33,373,3.79,580,5.89,566,5.75,1100,11.18,1159,11.78,301,3.06,941,9.56,593,6.03,1412,14.35,697,7.08
VERG. app.(1894),34,1.79,32,1.69,69,3.64,109,5.75,139,7.34,35,1.85,67,3.54,108,5.70,145,7.65,195,10.29,221,11.67,53,2.80,203,10.72,99,5.23,285,15.05,100,5.28
Aetna(645),6,0.93,10,1.55,33,5.12,29,4.50,32,4.96,15,2.32,28,4.34,37,5.74,42,6.51,74,11.47,61,9.46,17,2.63,85,13.18,50,7.75,90,13.95,36,5.58
ciris(534),12,2.25,8,1.50,11,2.06,35,6.55,44,8.24,6,1.12,14,2.62,25,4.68,33,6.18,56,10.49,71,13.29,20,3.74,43,8.05,27,5.06,98,18.35,31,5.80
culex(411),11,2.68,8,1.95,14,3.41,30,7.30,35,8.51,7,1.70,15,3.65,33,8.03,38,9.24,35,8.51,64,15.57,8,1.95,32,7.78,13,3.16,52,12.65,16,3.89
dirae(183),3,1.64,1,0.55,5,2.73,12,6.56,14,7.65,3,1.64,6,3.28,5,2.73,26,14.21,16,8.74,11,6.01,4,2.18,30,16.39,7,3.82,26,14.21,14,7.65
moret.(121),2,1.65,5,4.13,6,4.96,3,2.48,14,11.57,4,3.30,4,3.30,8,6.61,6,4.96,14,11.57,14,11.57,4,3.30,13,10.74,2,1.65,19,15.70,3,2.48
VARIVS(14),0,0,0,0,1,7.14,3,21.43,2,14.28,0,0,1,7.14,0,0,1,7.14,1,7.14,1,7.14,0,0,1,7.14,1,7.14,2,14.28,0,0
carm. frg.(14),0,0,0,0,1,7.14,3,21.43,2,14.28,0,0,1,7.14,0,0,1,7.14,1,7.14,1,7.14,0,0,1,7.14,1,7.14,2,14.28,0,0
OBTR. Verg.(4),0,0,0,0,0,0,0,0,1,25.00,0,0,0,0,0,0,1,25.00,1,25.00,0,0,0,0,0,0,0,0,0,0,1,25.00
HOR.(4089),85,2.08,98,2.40,175,4.28,191,4.67,224,5.48,126,3.08,220,5.38,223,5.45,278,6.80,395,9.66,374,9.15,189,4.62,435,10.64,258,6.31,520,12.72,298,7.29
sat. 1(1030),30,2.91,13,1.26,39,3.79,37,3.59,52,5.05,26,2.52,42,4.08,60,5.82,65,6.31,104,10.10,96,9.32,59,5.73,116,11.26,64,6.21,135,13.11,92,8.93
sat. 2(1083),18,1.66,31,2.86,42,3.88,54,4.99,64,5.91,36,3.32,48,4.43,50,4.62,68,6.28,104,9.60,106,9.79,45,4.15,114,10.53,71,6.55,151,13.94,81,7.48
epist. 1(1006),23,2.29,22,2.19,43,4.27,54,5.37,52,5.17,36,3.58,62,6.16,58,5.76,69,6.86,91,9.04,81,8.05,51,5.07,107,10.64,63,6.26,132,13.12,62,6.16
epist. 2(486),4,0.82,15,3.09,26,5.35,25,5.14,23,4.73,13,2.67,33,6.79,26,5.35,39,8.02,50,10.29,49,10.08,18,3.70,56,11.52,26,5.35,53,10.90,30,6.17
ars(476),10,2.10,17,3.57,25,5.25,20,4.20,33,6.93,15,3.15,35,7.35,28,5.88,37,7.77,46,9.66,41,8.61,16,3.36,39,8.19,34,7.14,49,10.29,31,6.51
sat. 1 10 praem.(8),0,0,0,0,0,0,1,12.50,0,0,0,0,0,0,1,12.50,0,0,0,0,1,12.50,0,0,3,37.50,0,0,0,0,2,25.00
MAECEN.(2),0,0,0,0,0,0,0,0,0,0,0,0,0,0,0,0,0,0,2,100,0,0,0,0,0,0,0,0,0,0,0,0
PANEG. in Mess.(212),6,2.83,5,2.36,9,4.24,6,2.83,16,7.55,3,1.41,12,5.66,12,5.66,20,9.43,30,14.15,22,10.38,9,4.24,5,2.36,6,2.83,36,16.98,15,7.07
corpus Tibullianum 3  7(212),6,2.83,5,2.36,9,4.24,6,2.83,16,7.55,3,1.41,12,5.66,12,5.66,20,9.43,30,14.15,22,10.38,9,4.24,5,2.36,6,2.83,36,16.98,15,7.07
VALG.(2),0,0,0,0,0,0,0,0,0,0,0,0,0,0,1,50.00,0,0,0,0,0,0,0,0,0,0,0,0,0,0,1,50.00
VERR. FL.(1),0,0,0,0,0,0,0,0,0,0,0,0,0,0,0,0,0,0,0,0,0,0,0,0,1,100,0,0,0,0,0,0
MACER(7),0,0,2,28.57,0,0,0,0,0,0,0,0,0,0,0,0,0,0,1,14.28,1,14.28,0,0,0,0,1,14.28,0,0,2,28.57
DOM. MARS.(2),0,0,1,50.00,0,0,0,0,0,0,0,0,0,0,0,0,0,0,0,0,0,0,0,0,1,50.00,0,0,0,0,0,0
OVID.(12263),688,5.61,244,1.99,901,7.35,1369,11.16,1064,8.68,158,1.29,469,3.82,343,2.80,1385,11.29,1386,11.30,1576,12.85,184,1.50,561,4.57,213,1.74,1543,12.58,179,1.46
met.(12009),684,5.69,239,1.99,896,7.46,1359,11.32,1052,8.76,149,1.24,456,3.80,323,2.69,1374,11.44,1351,11.25,1558,12.97,172,1.43,523,4.35,199,1.66,1516,12.62,158,1.31
hal.(129),4,3.10,3,2.32,2,1.55,7,5.43,5,3.87,5,3.87,6,4.65,9,6.98,7,5.43,16,12.40,12,9.30,4,3.10,22,17.05,8,6.20,9,6.98,10,7.75
carm. frg.(5),0,0,0,0,1,20.00,1,20.00,0,0,0,0,0,0,0,0,1,20.00,1,20.00,0,0,0,0,0,0,0,0,1,20.00,0,0
argum. Aen.(120),0,0,2,1.67,2,1.67,2,1.67,7,5.83,4,3.33,7,5.83,11,9.17,3,2.50,18,15.00,6,5.00,8,6.67,16,13.33,6,5.00,17,14.17,11,9.17
ALBINOV.(22),0,0,1,4.54,1,4.54,0,0,3,13.64,0,0,0,0,1,4.54,0,0,2,9.09,5,22.73,2,9.09,0,0,2,9.09,3,13.64,2,9.09
CORN. SEV.(35),1,2.86,2,5.71,4,11.43,4,11.43,0,0,0,0,5,14.28,0,0,6,17.14,0,0,5,14.28,2,5.71,3,8.57,1,2.86,2,5.71,0,0
SEXTIL.(1),0,0,1,100,0,0,0,0,0,0,0,0,0,0,0,0,0,0,0,0,0,0,0,0,0,0,0,0,0,0,0,0
GRATT.(532),9,1.69,12,2.25,22,4.13,20,3.76,35,6.58,12,2.25,31,5.83,28,5.26,22,4.13,64,12.03,56,10.53,20,3.76,64,12.03,43,8.08,70,13.16,24,4.51
MONTAN.(6),0,0,0,0,0,0,0,0,1,16.67,0,0,0,0,1,16.67,1,16.67,1,16.67,0,0,0,0,0,0,0,0,2,33.33,0,0
ARBON.(2),0,0,0,0,0,0,0,0,0,0,0,0,0,0,0,0,1,50.00,0,0,1,50.00,0,0,0,0,0,0,0,0,0,0
RABIR.(67),1,1.49,0,0,5,7.46,7,10.45,8,11.94,0,0,5,7.46,4,5.97,5,7.46,16,23.88,4,5.97,0,0,4,5.97,4,5.97,3,4.48,1,1.49
bell. Aeg.(65),1,1.54,0,0,5,7.69,7,10.77,6,9.23,0,0,5,7.69,4,6.15,5,7.69,16,24.61,4,6.15,0,0,4,6.15,4,6.15,3,4.61,1,1.54
carm. frg.(2),0,0,0,0,0,0,0,0,2,100,0,0,0,0,0,0,0,0,0,0,0,0,0,0,0,0,0,0,0,0,0,0
DORCAT.(2),1,50.00,0,0,0,0,0,0,0,0,0,0,0,0,0,0,0,0,0,0,0,0,0,0,1,50.00,0,0,0,0,0,0
GERM.(983),21,2.14,15,1.52,42,4.27,54,5.49,48,4.88,20,2.03,50,5.09,45,4.58,65,6.61,86,8.75,126,12.82,29,2.95,97,9.87,53,5.39,164,16.68,68,6.92
Arat.(725),13,1.79,9,1.24,31,4.27,34,4.69,30,4.14,16,2.21,44,6.07,36,4.96,41,5.65,66,9.10,89,12.27,24,3.31,79,10.90,41,5.65,118,16.27,54,7.45
Arat. frg.(258),8,3.10,6,2.32,11,4.26,20,7.75,18,6.98,4,1.55,6,2.32,9,3.49,24,9.30,20,7.75,37,14.34,5,1.94,18,6.98,12,4.65,46,17.83,14,5.43
MANIL.(4252),68,1.60,65,1.53,127,2.99,166,3.90,249,5.86,72,1.69,161,3.79,255,6.00,232,5.46,480,11.29,558,13.12,78,1.83,496,11.66,240,5.64,732,17.21,273,6.42
GAETVL.(3),0,0,0,0,0,0,0,0,1,33.33,0,0,0,0,0,0,1,33.33,0,0,1,33.33,0,0,0,0,0,0,0,0,0,0
PACON.(4),1,25.00,0,0,0,0,0,0,0,0,0,0,0,0,1,25.00,0,0,0,0,1,25.00,0,0,0,0,1,25.00,0,0,0,0
VAGELL.(1),0,0,0,0,0,0,0,0,0,0,0,0,0,0,0,0,0,0,1,100,0,0,0,0,0,0,0,0,0,0,0,0
COLVM.(436),13,2.98,8,1.83,25,5.73,36,8.26,36,8.26,2,0.46,15,3.44,15,3.44,42,9.63,60,13.76,65,14.91,6,1.38,37,8.49,11,2.52,55,12.61,10,2.29
SEN.(81),0,0,3,3.70,2,2.47,7,8.64,3,3.70,2,2.47,3,3.70,5,6.17,10,12.34,9,11.11,2,2.47,1,1.23,5,6.17,6,7.41,17,20.99,6,7.41
apocol.(49),0,0,2,4.08,1,2.04,3,6.12,1,2.04,1,2.04,2,4.08,3,6.12,5,10.20,5,10.20,1,2.04,0,0,4,8.16,6,12.24,11,22.45,4,8.16
Med.(6),0,0,1,16.67,0,0,1,16.67,0,0,0,0,0,0,0,0,1,16.67,2,33.33,0,0,0,0,0,0,0,0,1,16.67,0,0
Oed.(26),0,0,0,0,1,3.85,3,11.54,2,7.69,1,3.85,1,3.85,2,7.69,4,15.38,2,7.69,1,3.85,1,3.85,1,3.85,0,0,5,19.23,2,7.69
LVCIL. IVN.(2),0,0,0,0,0,0,0,0,0,0,0,0,2,100,0,0,0,0,0,0,0,0,0,0,0,0,0,0,0,0,0,0
ATT. LABEO(1),0,0,0,0,0,0,0,0,0,0,1,100,0,0,0,0,0,0,0,0,0,0,0,0,0,0,0,0,0,0,0,0
CALP. SIC.(759),51,6.72,24,3.16,63,8.30,88,11.59,70,9.22,13,1.71,47,6.19,33,4.35,76,10.01,96,12.65,81,10.67,4,0.53,30,3.95,23,3.03,47,6.19,13,1.71
LAVS Pis.(261),18,6.90,8,3.06,18,6.90,28,10.73,23,8.81,2,0.77,12,4.60,21,8.04,22,8.43,40,15.32,23,8.81,1,0.38,12,4.60,7,2.68,24,9.19,2,0.77
PERS.(650),13,2.00,9,1.38,31,4.77,33,5.08,40,6.15,5,0.77,32,4.92,21,3.23,51,7.85,68,10.46,94,14.46,10,1.54,67,10.31,27,4.15,116,17.85,33,5.08
sat.(650),13,2.00,9,1.38,31,4.77,33,5.08,40,6.15,5,0.77,32,4.92,21,3.23,51,7.85,68,10.46,94,14.46,10,1.54,67,10.31,27,4.15,116,17.85,33,5.08
BASS.(1),0,0,0,0,0,0,0,0,0,0,0,0,0,0,0,0,0,0,1,100,0,0,0,0,0,0,0,0,0,0,0,0
LVCAN.(8071),127,1.57,128,1.58,269,3.33,330,4.09,489,6.06,168,2.08,302,3.74,466,5.77,490,6.07,1238,15.34,911,11.29,133,1.65,818,10.13,685,8.49,1241,15.38,276,3.42
Phars.(8060),127,1.57,128,1.59,269,3.34,330,4.09,489,6.07,168,2.08,301,3.73,464,5.76,489,6.07,1238,15.36,909,11.28,133,1.65,818,10.15,685,8.50,1237,15.35,275,3.41
carm. frg.(11),0,0,0,0,0,0,0,0,0,0,0,0,1,9.09,2,18.18,1,9.09,0,0,2,18.18,0,0,0,0,0,0,4,36.36,1,9.09
PETRON.(515),13,2.52,14,2.72,21,4.08,31,6.02,28,5.44,13,2.52,42,8.15,23,4.47,34,6.60,49,9.51,60,11.65,21,4.08,54,10.48,38,7.38,53,10.29,21,4.08
sat.(116),4,3.45,4,3.45,5,4.31,7,6.03,10,8.62,2,1.72,12,10.34,5,4.31,4,3.45,9,7.76,10,8.62,4,3.45,14,12.07,11,9.48,13,11.21,2,1.72
bell. ciu.(295),9,3.05,7,2.37,10,3.39,16,5.42,10,3.39,6,2.03,26,8.81,14,4.74,25,8.47,23,7.80,35,11.86,15,5.08,31,10.51,18,6.10,34,11.52,16,5.42
frg.(104),0,0,3,2.88,6,5.77,8,7.69,8,7.69,5,4.81,4,3.85,4,3.85,5,4.81,17,16.35,15,14.42,2,1.92,9,8.65,9,8.65,6,5.77,3,2.88
NERO(10),1,10.00,0,0,0,0,1,10.00,0,0,0,0,0,0,2,20.00,0,0,0,0,1,10.00,1,10.00,0,0,0,0,3,30.00,1,10.00
ILIAS Latina(1069),37,3.46,19,1.78,55,5.14,69,6.45,71,6.64,21,1.96,50,4.68,56,5.24,75,7.01,89,8.32,135,12.63,30,2.81,100,9.35,61,5.71,141,13.19,60,5.61
VAL. FL.(5574),203,3.64,81,1.45,394,7.07,496,8.90,535,9.60,56,1.00,147,2.64,177,3.17,531,9.53,1267,22.73,637,11.43,35,0.63,200,3.59,164,2.94,586,10.51,57,1.02
STAT.(14330),505,3.52,319,2.23,926,6.46,920,6.42,1294,9.03,358,2.50,480,3.35,720,5.02,974,6.80,2328,16.24,1556,10.86,217,1.51,850,5.93,818,5.71,1723,12.02,342,2.39
Theb.(9747),366,3.75,212,2.17,630,6.46,609,6.25,870,8.92,231,2.37,294,3.02,483,4.95,665,6.82,1575,16.16,1085,11.13,154,1.58,571,5.86,549,5.63,1224,12.56,229,2.35
argum. Theb.(132),4,3.03,4,3.03,6,4.54,9,6.82,9,6.82,1,0.76,5,3.79,2,1.51,5,3.79,15,11.36,16,12.12,2,1.51,18,13.64,4,3.03,24,18.18,8,6.06
bell. Germ. frg.(4),0,0,0,0,0,0,1,25.00,0,0,0,0,0,0,0,0,0,0,1,25.00,2,50.00,0,0,0,0,0,0,0,0,0,0
Ach.(1127),38,3.37,31,2.75,70,6.21,73,6.48,110,9.76,34,3.02,46,4.08,69,6.12,75,6.65,191,16.95,103,9.14,14,1.24,64,5.68,68,6.03,116,10.29,25,2.22
silu. 1(690),28,4.06,20,2.90,39,5.65,53,7.68,50,7.25,26,3.77,28,4.06,26,3.77,54,7.83,123,17.83,60,8.69,10,1.45,42,6.09,48,6.96,70,10.14,13,1.88
silu. 2(636),13,2.04,14,2.20,37,5.82,35,5.50,69,10.85,13,2.04,25,3.93,35,5.50,48,7.55,98,15.41,70,11.01,11,1.73,33,5.19,40,6.29,72,11.32,23,3.62
silu. 3(763),22,2.88,18,2.36,56,7.34,53,6.95,81,10.61,22,2.88,35,4.59,42,5.50,58,7.60,117,15.33,75,9.83,7,0.92,45,5.90,44,5.77,76,9.96,12,1.57
silu. 4(390),10,2.56,11,2.82,33,8.46,26,6.67,33,8.46,9,2.31,12,3.08,17,4.36,22,5.64,56,14.36,56,14.36,9,2.31,22,5.64,24,6.15,40,10.26,10,2.56
silu. 5(841),24,2.85,9,1.07,55,6.54,61,7.25,72,8.56,22,2.61,35,4.16,46,5.47,47,5.59,152,18.07,89,10.58,10,1.19,55,6.54,41,4.87,101,12.01,22,2.61
SIL. ITAL.(12201),181,1.48,237,1.94,385,3.15,430,3.52,591,4.84,377,3.09,575,4.71,758,6.21,596,4.88,1149,9.42,1101,9.02,557,4.56,1451,11.89,1040,8.52,1593,13.06,1180,9.67
TVRN.(2),0,0,0,0,0,0,0,0,0,0,0,0,0,0,1,50.00,0,0,0,0,0,0,0,0,0,0,0,0,0,0,1,50.00
MART.(46),1,2.17,1,2.17,0,0,3,6.52,2,4.35,2,4.35,1,2.17,1,2.17,3,6.52,6,13.04,7,15.22,1,2.17,5,10.87,5,10.87,6,13.04,2,4.35
epigr. 1(12),1,8.33,0,0,0,0,1,8.33,0,0,1,8.33,0,0,0,0,0,0,2,16.67,2,16.67,0,0,1,8.33,2,16.67,1,8.33,1,8.33
epigr. 2(1),0,0,0,0,0,0,0,0,0,0,0,0,0,0,0,0,0,0,1,100,0,0,0,0,0,0,0,0,0,0,0,0
epigr. 6(32),0,0,1,3.12,0,0,1,3.12,2,6.25,1,3.12,1,3.12,1,3.12,3,9.37,3,9.37,5,15.62,1,3.12,4,12.50,3,9.37,5,15.62,1,3.12
epigr. 7(1),0,0,0,0,0,0,1,100,0,0,0,0,0,0,0,0,0,0,0,0,0,0,0,0,0,0,0,0,0,0,0,0
IVV.(3867),81,2.09,94,2.43,162,4.19,206,5.33,187,4.83,84,2.17,216,5.58,202,5.22,301,7.78,412,10.65,402,10.39,120,3.10,415,10.73,260,6.72,515,13.32,210,5.43
PLIN.(13),0,0,1,7.69,1,7.69,0,0,0,0,1,7.69,2,15.38,1,7.69,1,7.69,2,15.38,0,0,1,7.69,1,7.69,0,0,0,0,2,15.38
VERS. e Suet.(1),0,0,0,0,0,0,0,0,0,0,1,100,0,0,0,0,0,0,0,0,0,0,0,0,0,0,0,0,0,0,0,0
Ner.(1),0,0,0,0,0,0,0,0,0,0,1,100,0,0,0,0,0,0,0,0,0,0,0,0,0,0,0,0,0,0,0,0
FLOR.(5),1,20.00,0,0,0,0,0,0,0,0,0,0,0,0,1,20.00,0,0,0,0,3,60.00,0,0,0,0,0,0,0,0,0,0
anth.(5),1,20.00,0,0,0,0,0,0,0,0,0,0,0,0,1,20.00,0,0,0,0,3,60.00,0,0,0,0,0,0,0,0,0,0
SVLP. APOLL.(71),0,0,3,4.22,2,2.82,4,5.63,4,5.63,4,5.63,2,2.82,3,4.22,0,0,10,14.08,12,16.90,2,2.82,6,8.45,6,8.45,11,15.49,2,2.82
hexast.(71),0,0,3,4.22,2,2.82,4,5.63,4,5.63,4,5.63,2,2.82,3,4.22,0,0,10,14.08,12,16.90,2,2.82,6,8.45,6,8.45,11,15.49,2,2.82
FRONTO(1),0,0,0,0,0,0,1,100,0,0,0,0,0,0,0,0,0,0,0,0,0,0,0,0,0,0,0,0,0,0,0,0
APVL.(4),0,0,0,0,0,0,0,0,0,0,0,0,0,0,1,25.00,0,0,0,0,1,25.00,0,0,0,0,1,25.00,0,0,1,25.00
carm. frg.(1),0,0,0,0,0,0,0,0,0,0,0,0,0,0,1,100,0,0,0,0,0,0,0,0,0,0,0,0,0,0,0,0
flor. 7(3),0,0,0,0,0,0,0,0,0,0,0,0,0,0,0,0,0,0,0,0,1,33.33,0,0,0,0,1,33.33,0,0,1,33.33
CAPER(18),0,0,0,0,0,0,0,0,2,11.11,0,0,2,11.11,2,11.11,2,11.11,2,11.11,2,11.11,0,0,2,11.11,2,11.11,0,0,2,11.11
TER. MAVR.(456),20,4.38,7,1.53,20,4.38,30,6.58,21,4.60,10,2.19,20,4.38,26,5.70,31,6.80,46,10.09,49,10.74,15,3.29,53,11.62,23,5.04,55,12.06,30,6.58
de litteris de syllabis de metris (456),20,4.38,7,1.53,20,4.38,30,6.58,21,4.60,10,2.19,20,4.38,26,5.70,31,6.80,46,10.09,49,10.74,15,3.29,53,11.62,23,5.04,55,12.06,30,6.58
TERT.(1302),32,2.46,33,2.53,53,4.07,66,5.07,72,5.53,35,2.69,66,5.07,82,6.30,78,5.99,117,8.99,120,9.22,43,3.30,137,10.52,80,6.14,161,12.36,127,9.75
adu. Marc.(1302),32,2.46,33,2.53,53,4.07,66,5.07,72,5.53,35,2.69,66,5.07,82,6.30,78,5.99,117,8.99,120,9.22,43,3.30,137,10.52,80,6.14,161,12.36,127,9.75
NEMES.(672),18,2.68,16,2.38,29,4.31,40,5.95,43,6.40,11,1.64,29,4.31,34,5.06,22,3.27,101,15.03,80,11.90,16,2.38,69,10.27,46,6.84,76,11.31,42,6.25
ecl.(319),8,2.51,6,1.88,11,3.45,22,6.90,20,6.27,3,0.94,10,3.13,14,4.39,9,2.82,48,15.05,45,14.11,9,2.82,37,11.60,23,7.21,39,12.22,15,4.70
cyn.(325),9,2.77,9,2.77,16,4.92,16,4.92,21,6.46,8,2.46,19,5.85,19,5.85,10,3.08,49,15.08,30,9.23,7,2.15,31,9.54,21,6.46,35,10.77,25,7.69
auc.(28),1,3.57,1,3.57,2,7.14,2,7.14,2,7.14,0,0,0,0,1,3.57,3,10.71,4,14.28,5,17.86,0,0,1,3.57,2,7.14,2,7.14,2,7.14
REPOS.(182),0,0,3,1.65,2,1.10,2,1.10,10,5.49,3,1.65,8,4.39,12,6.59,10,5.49,17,9.34,35,19.23,5,2.75,22,12.09,12,6.59,33,18.13,8,4.39
VESPA(99),4,4.04,0,0,4,4.04,12,12.12,6,6.06,2,2.02,2,2.02,3,3.03,6,6.06,5,5.05,11,11.11,5,5.05,11,11.11,5,5.05,13,13.13,10,10.10
PS. CATO(374),4,1.07,5,1.34,11,2.94,24,6.42,27,7.22,2,0.53,17,4.54,15,4.01,22,5.88,36,9.62,48,12.83,11,2.94,37,9.89,23,6.15,59,15.77,33,8.82
dist.(306),1,0.33,3,0.98,9,2.94,17,5.55,18,5.88,1,0.33,14,4.57,14,4.57,19,6.21,33,10.78,37,12.09,10,3.27,31,10.13,18,5.88,51,16.67,30,9.80
app.(16),0,0,1,6.25,1,6.25,1,6.25,2,12.50,1,6.25,1,6.25,0,0,1,6.25,0,0,2,12.50,1,6.25,2,12.50,1,6.25,1,6.25,1,6.25
uers.(52),3,5.77,1,1.92,1,1.92,6,11.54,7,13.46,0,0,2,3.85,1,1.92,2,3.85,3,5.77,9,17.31,0,0,4,7.69,4,7.69,7,13.46,2,3.85
ARNOB.(8),0,0,0,0,0,0,1,12.50,0,0,0,0,0,0,0,0,0,0,0,0,1,12.50,0,0,3,37.50,1,12.50,2,25.00,0,0
LACT.(81),7,8.64,2,2.47,7,8.64,8,9.88,4,4.94,2,2.47,1,1.23,1,1.23,7,8.64,10,12.34,9,11.11,3,3.70,4,4.94,4,4.94,8,9.88,4,4.94
carm. frg.(1),0,0,0,0,0,0,0,0,0,0,0,0,0,0,0,0,0,0,1,100,0,0,0,0,0,0,0,0,0,0,0,0
pass. dom.(80),7,8.75,2,2.50,7,8.75,8,10.00,4,5.00,2,2.50,1,1.25,1,1.25,7,8.75,9,11.25,9,11.25,3,3.75,4,5.00,4,5.00,8,10.00,4,5.00
TIBERIAN.(61),1,1.64,0,0,3,4.92,4,6.56,4,6.56,5,8.20,0,0,8,13.11,3,4.92,11,18.03,1,1.64,3,4.92,2,3.28,3,4.92,6,9.84,7,11.47
carm.(60),1,1.67,0,0,3,5.00,4,6.67,4,6.67,5,8.33,0,0,7,11.67,3,5.00,11,18.33,1,1.67,3,5.00,2,3.33,3,5.00,6,10.00,7,11.67
carm. frg.(1),0,0,0,0,0,0,0,0,0,0,0,0,0,0,1,100,0,0,0,0,0,0,0,0,0,0,0,0,0,0,0,0
OPT. PORF.(753),13,1.73,11,1.46,27,3.58,31,4.12,32,4.25,10,1.33,25,3.32,22,2.92,52,6.90,73,9.69,87,11.55,24,3.19,73,9.69,28,3.72,206,27.36,39,5.18
VERS. ex Hist. Aug.(9),0,0,0,0,0,0,0,0,0,0,0,0,0,0,0,0,3,33.33,2,22.22,0,0,1,11.11,0,0,0,0,1,11.11,2,22.22
in Caesares(9),0,0,0,0,0,0,0,0,0,0,0,0,0,0,0,0,3,33.33,2,22.22,0,0,1,11.11,0,0,0,0,1,11.11,2,22.22
ALBINVS(5),0,0,0,0,0,0,1,20.00,0,0,1,20.00,0,0,0,0,0,0,0,0,1,20.00,0,0,1,20.00,0,0,0,0,1,20.00
LAVD. dom.(148),1,0.67,5,3.38,7,4.73,8,5.40,8,5.40,3,2.03,8,5.40,13,8.78,5,3.38,11,7.43,15,10.13,10,6.76,17,11.49,10,6.76,21,14.19,6,4.05
IVL. VAL.(17),0,0,1,5.88,1,5.88,1,5.88,1,5.88,0,0,0,0,0,0,1,5.88,2,11.76,3,17.65,1,5.88,0,0,0,0,6,35.29,0,0
PAVL. QVAEST.(3),0,0,0,0,1,33.33,1,33.33,0,0,0,0,0,0,0,0,1,33.33,0,0,0,0,0,0,0,0,0,0,0,0,0,0
IVVENC.(3249),46,1.41,54,1.66,77,2.37,129,3.97,166,5.11,64,1.97,121,3.72,176,5.42,161,4.95,306,9.42,396,12.19,130,4.00,354,10.89,237,7.29,514,15.82,318,9.79
HIL. PICT.(706),25,3.54,18,2.55,13,1.84,35,4.96,44,6.23,15,2.12,35,4.96,34,4.81,48,6.80,70,9.91,87,12.32,21,2.97,84,11.90,35,4.96,108,15.30,34,4.81
gen.(198),4,2.02,5,2.52,4,2.02,8,4.04,11,5.55,2,1.01,4,2.02,8,4.04,14,7.07,22,11.11,25,12.63,9,4.54,24,12.12,14,7.07,35,17.68,9,4.54
Macc.(394),18,4.57,7,1.78,7,1.78,24,6.09,25,6.34,10,2.54,27,6.85,19,4.82,27,6.85,43,10.91,49,12.44,7,1.78,48,12.18,14,3.55,52,13.20,17,4.31
euang.(114),3,2.63,6,5.26,2,1.75,3,2.63,8,7.02,3,2.63,4,3.51,7,6.14,7,6.14,5,4.38,13,11.40,5,4.38,12,10.53,7,6.14,21,18.42,8,7.02
CHALC.(38),1,2.63,0,0,1,2.63,4,10.53,1,2.63,0,0,3,7.89,0,0,3,7.89,4,10.53,8,21.05,4,10.53,2,5.26,3,7.89,3,7.89,1,2.63
PROBA(708),21,2.97,13,1.84,25,3.53,34,4.80,52,7.34,12,1.69,32,4.52,45,6.35,38,5.37,93,13.13,86,12.15,17,2.40,78,11.02,28,3.95,95,13.42,39,5.51
AVIEN.(3309),100,3.02,98,2.96,224,6.77,246,7.43,160,4.83,66,1.99,210,6.35,175,5.29,382,11.54,308,9.31,306,9.25,107,3.23,228,6.89,108,3.26,450,13.60,141,4.26
Arat.(1878),73,3.89,58,3.09,119,6.34,141,7.51,103,5.48,44,2.34,108,5.75,104,5.54,204,10.86,168,8.94,177,9.42,65,3.46,119,6.34,65,3.46,248,13.20,82,4.37
ad Flau.(31),1,3.22,1,3.22,2,6.45,6,19.35,0,0,1,3.22,2,6.45,2,6.45,4,12.90,2,6.45,4,12.90,0,0,2,6.45,2,6.45,1,3.22,1,3.22
ad Nort.(8),0,0,0,0,1,12.50,1,12.50,1,12.50,0,0,0,0,0,0,0,0,0,0,3,37.50,0,0,0,0,1,12.50,0,0,1,12.50
orb. terr.(1392),26,1.87,39,2.80,102,7.33,98,7.04,56,4.02,21,1.51,100,7.18,69,4.96,174,12.50,138,9.91,122,8.76,42,3.02,107,7.69,40,2.87,201,14.44,57,4.09
SYMM. pater(30),1,3.33,1,3.33,0,0,0,0,0,0,1,3.33,1,3.33,3,10.00,1,3.33,3,10.00,4,13.33,1,3.33,4,13.33,6,20.00,3,10.00,1,3.33
Arad.(6),0,0,0,0,0,0,0,0,0,0,0,0,0,0,1,16.67,1,16.67,1,16.67,0,0,0,0,2,33.33,1,16.67,0,0,0,0
Procul.(6),0,0,0,0,0,0,0,0,0,0,0,0,0,0,1,16.67,0,0,0,0,0,0,0,0,2,33.33,1,16.67,1,16.67,1,16.67
Iul.(6),0,0,0,0,0,0,0,0,0,0,1,16.67,1,16.67,0,0,0,0,1,16.67,1,16.67,1,16.67,0,0,0,0,1,16.67,0,0
Prob.(6),0,0,1,16.67,0,0,0,0,0,0,0,0,0,0,0,0,0,0,1,16.67,2,33.33,0,0,0,0,1,16.67,1,16.67,0,0
Verin.(6),1,16.67,0,0,0,0,0,0,0,0,0,0,0,0,1,16.67,0,0,0,0,1,16.67,0,0,0,0,3,50.00,0,0,0,0
SYMM.(5),1,20.00,0,0,0,0,0,0,0,0,0,0,0,0,0,0,0,0,0,0,1,20.00,0,0,1,20.00,1,20.00,1,20.00,0,0
DAMAS.(500),25,5.00,19,3.80,30,6.00,29,5.80,51,10.20,4,0.8,20,4.00,24,4.80,23,4.60,60,12.00,68,13.60,9,1.80,39,7.80,26,5.20,55,11.00,18,3.60
AMBR.(57),0,0,3,5.26,3,5.26,3,5.26,6,10.53,0,0,2,3.51,1,1.75,6,10.53,6,10.53,6,10.53,0,0,9,15.79,3,5.26,7,12.28,2,3.51
tern. num.(15),0,0,1,6.67,2,13.33,1,6.67,2,13.33,0,0,1,6.67,0,0,2,13.33,1,6.67,1,6.67,0,0,1,6.67,1,6.67,1,6.67,1,6.67
dist.(42),0,0,2,4.76,1,2.38,2,4.76,4,9.52,0,0,1,2.38,1,2.38,4,9.52,5,11.90,5,11.90,0,0,8,19.05,2,4.76,6,14.28,1,2.38
MARCELL.(77),1,1.30,1,1.30,1,1.30,11,14.28,3,3.90,2,2.60,9,11.69,5,6.49,1,1.30,9,11.69,11,14.28,0,0,9,11.69,4,5.19,8,10.39,2,2.60
SEREN.(1103),23,2.08,14,1.27,32,2.90,66,5.98,65,5.89,23,2.08,52,4.71,50,4.53,75,6.80,106,9.61,142,12.87,50,4.53,109,9.88,52,4.71,164,14.87,80,7.25
AVSON.(2525),136,5.39,70,2.77,174,6.89,180,7.13,150,5.94,94,3.72,127,5.03,157,6.22,243,9.62,241,9.54,229,9.07,92,3.64,129,5.11,189,7.48,214,8.47,100,3.96
ephem.(128),6,4.69,4,3.12,11,8.59,6,4.69,12,9.37,6,4.69,4,3.12,9,7.03,9,7.03,14,10.94,12,9.37,2,1.56,6,4.69,10,7.81,14,10.94,3,2.34
Pasch.(31),0,0,1,3.22,0,0,3,9.68,1,3.22,0,0,0,0,3,9.68,7,22.58,2,6.45,2,6.45,2,6.45,0,0,7,22.58,3,9.68,0,0
ad filium(22),1,4.54,0,0,4,18.18,1,4.54,1,4.54,0,0,1,4.54,0,0,3,13.64,6,27.27,1,4.54,0,0,2,9.09,0,0,2,9.09,0,0
protr.(100),7,7.00,3,3.00,5,5.00,8,8.00,5,5.00,1,1.0,11,11.00,4,4.00,3,3.00,14,14.00,10,10.00,1,1.0,6,6.00,9,9.00,10,10.00,3,3.00
genethl.(27),0,0,1,3.70,3,11.11,1,3.70,2,7.41,2,7.41,1,3.70,1,3.70,2,7.41,5,18.52,4,14.81,0,0,3,11.11,2,7.41,0,0,0,0
prof.(18),0,0,0,0,3,16.67,0,0,2,11.11,1,5.55,0,0,2,11.11,1,5.55,0,0,2,11.11,1,5.55,2,11.11,0,0,4,22.22,0,0
epitaph.(11),1,9.09,0,0,0,0,1,9.09,1,9.09,0,0,2,18.18,0,0,0,0,1,9.09,1,9.09,0,0,0,0,0,0,4,36.36,0,0
epigr.(54),2,3.70,2,3.70,6,11.11,7,12.96,1,1.85,3,5.55,2,3.70,3,5.55,11,20.37,3,5.55,0,0,1,1.85,3,5.55,3,5.55,3,5.55,4,7.41
ecl.(301),8,2.66,8,2.66,23,7.64,19,6.31,12,3.99,19,6.31,9,2.99,18,5.98,34,11.29,30,9.97,28,9.30,8,2.66,18,5.98,26,8.64,24,7.97,17,5.65
griph.(90),7,7.78,1,1.11,12,13.33,7,7.78,6,6.67,2,2.22,3,3.33,3,3.33,6,6.67,9,10.00,10,11.11,3,3.33,3,3.33,7,7.78,7,7.78,4,4.44
Mos.(482),29,6.02,17,3.53,27,5.60,34,7.05,29,6.02,10,2.07,33,6.85,24,4.98,46,9.54,42,8.71,44,9.13,22,4.56,28,5.81,34,7.05,41,8.51,22,4.56
Bissula(6),0,0,0,0,1,16.67,0,0,0,0,1,16.67,0,0,0,0,2,33.33,1,16.67,0,0,0,0,1,16.67,0,0,0,0,0,0
cento(131),5,3.82,5,3.82,4,3.05,5,3.82,10,7.63,3,2.29,3,2.29,11,8.40,9,6.87,7,5.34,15,11.45,5,3.82,9,6.87,11,8.40,19,14.50,10,7.63
Cupido(102),7,6.86,3,2.94,6,5.88,9,8.82,9,8.82,5,4.90,2,1.96,6,5.88,7,6.86,11,10.78,8,7.84,2,1.96,8,7.84,10,9.80,5,4.90,4,3.92
prec.(88),13,14.77,0,0,5,5.68,7,7.95,8,9.09,1,1.14,5,5.68,6,6.82,7,7.95,8,9.09,6,6.82,0,0,2,2.27,8,9.09,11,12.50,1,1.14
fasti(3),0,0,0,0,1,33.33,0,0,0,0,1,33.33,0,0,0,0,0,0,0,0,0,0,0,0,1,33.33,0,0,0,0,0,0
Caes.(40),1,2.50,0,0,1,2.50,5,12.50,1,2.50,2,5.00,0,0,1,2.50,3,7.50,3,7.50,9,22.50,3,7.50,1,2.50,4,10.00,5,12.50,1,2.50
urb.(168),7,4.17,6,3.57,14,8.33,14,8.33,13,7.74,4,2.38,6,3.57,7,4.17,19,11.31,19,11.31,15,8.93,8,4.76,4,2.38,12,7.14,14,8.33,6,3.57
technop.(163),10,6.13,6,3.68,16,9.81,20,12.27,6,3.68,6,3.68,13,7.97,5,3.07,29,17.79,9,5.52,9,5.52,17,10.43,2,1.23,4,2.45,5,3.07,6,3.68
epist.(449),29,6.46,12,2.67,28,6.24,32,7.13,29,6.46,24,5.34,20,4.45,33,7.35,37,8.24,47,10.47,39,8.68,11,2.45,25,5.57,35,7.79,34,7.57,14,3.12
fragm.(1),0,0,0,0,0,0,0,0,0,0,0,0,0,0,1,100,0,0,0,0,0,0,0,0,0,0,0,0,0,0,0,0
oratio(42),0,0,0,0,0,0,0,0,0,0,0,0,11,26.19,11,26.19,5,11.90,5,11.90,0,0,5,11.90,0,0,5,11.90,0,0,0,0
per. Il.(43),2,4.65,1,2.32,2,4.65,1,2.32,1,2.32,3,6.98,1,2.32,3,6.98,2,4.65,4,9.30,8,18.60,1,2.32,3,6.98,2,4.65,7,16.28,2,4.65
per. Od.(25),1,4.00,0,0,2,8.00,0,0,1,4.00,0,0,0,0,6,24.00,1,4.00,1,4.00,6,24.00,0,0,2,8.00,0,0,2,8.00,3,12.00
EPIGR. Bob.(95),2,2.10,2,2.10,5,5.26,13,13.68,6,6.31,1,1.05,5,5.26,3,3.16,13,13.68,10,10.53,9,9.47,4,4.21,1,1.05,4,4.21,16,16.84,1,1.05
CLAVD.(8957),97,1.08,140,1.56,297,3.31,363,4.05,544,6.07,141,1.57,425,4.74,588,6.56,479,5.35,1616,18.04,1118,12.48,32,0.36,1092,12.19,801,8.94,1167,13.03,57,0.64
Prob. et Olybr.(279),0,0,3,1.07,13,4.66,17,6.09,18,6.45,1,0.36,18,6.45,21,7.53,19,6.81,47,16.84,39,13.98,0,0,30,10.75,18,6.45,34,12.19,1,0.36
in Ruf.(914),16,1.75,16,1.75,28,3.06,26,2.84,49,5.36,18,1.97,44,4.81,67,7.33,45,4.92,154,16.85,114,12.47,4,0.44,105,11.49,92,10.06,122,13.35,14,1.53
Hon. III cos.(211),1,0.47,7,3.32,4,1.89,4,1.89,19,9.00,0,0,11,5.21,16,7.58,11,5.21,41,19.43,27,12.80,2,0.95,26,12.32,21,9.95,20,9.48,1,0.47
Hon. IV cos.(656),6,0.91,11,1.68,29,4.42,25,3.81,45,6.86,13,1.98,26,3.96,42,6.40,28,4.27,117,17.83,68,10.36,2,0.3,87,13.26,55,8.38,98,14.94,4,0.61
Hon. nupt.(341),4,1.17,4,1.17,8,2.35,14,4.10,21,6.16,4,1.17,14,4.10,21,6.16,25,7.33,68,19.94,42,12.32,1,0.29,40,11.73,37,10.85,35,10.26,3,0.88
bell. Gild.(526),4,0.76,9,1.71,14,2.66,26,4.94,19,3.61,6,1.14,18,3.42,38,7.22,18,3.42,101,19.20,68,12.93,1,0.19,72,13.69,53,10.08,78,14.83,1,0.19
Mall. Theod.(340),1,0.29,3,0.88,9,2.65,15,4.41,27,7.94,2,0.59,16,4.70,26,7.65,16,4.70,53,15.59,52,15.29,1,0.29,39,11.47,24,7.06,54,15.88,2,0.59
in Eutr.(1115),7,0.63,14,1.25,38,3.41,34,3.05,79,7.08,11,0.99,51,4.57,65,5.83,78,6.99,205,18.38,154,13.81,4,0.36,132,11.84,84,7.53,153,13.72,6,0.54
Stil. cos.(1230),13,1.06,18,1.46,35,2.84,42,3.41,67,5.45,19,1.54,60,4.88,83,6.75,67,5.45,203,16.50,157,12.76,4,0.32,186,15.12,100,8.13,169,13.74,7,0.57
Goth.(647),11,1.70,7,1.08,22,3.40,31,4.79,38,5.87,23,3.55,29,4.48,41,6.34,33,5.10,113,17.46,79,12.21,2,0.31,71,10.97,64,9.89,80,12.36,3,0.46
Hon. VI cos.(660),10,1.51,19,2.88,33,5.00,35,5.30,32,4.85,19,2.88,28,4.24,47,7.12,35,5.30,122,18.48,59,8.94,4,0.61,78,11.82,70,10.61,66,10.00,3,0.45
carm. min.(930),13,1.40,16,1.72,41,4.41,43,4.62,56,6.02,16,1.72,52,5.59,57,6.13,48,5.16,187,20.11,104,11.18,3,0.32,100,10.75,80,8.60,111,11.93,3,0.32
rapt. Pros.(1108),11,0.99,13,1.17,23,2.07,51,4.60,74,6.68,9,0.81,58,5.23,64,5.78,56,5.05,205,18.50,155,13.99,4,0.36,126,11.37,103,9.30,147,13.27,9,0.81
PRVD.(4961),201,4.05,162,3.26,274,5.52,329,6.63,384,7.74,134,2.70,260,5.24,343,6.91,320,6.45,587,11.83,527,10.62,96,1.93,500,10.08,298,6.01,453,9.13,93,1.87
praef.(12),1,8.33,0,0,0,0,2,16.67,1,8.33,1,8.33,0,0,0,0,1,8.33,2,16.67,1,8.33,0,0,1,8.33,0,0,2,16.67,0,0
apoth.(1084),41,3.78,28,2.58,55,5.07,69,6.36,72,6.64,34,3.14,59,5.44,70,6.46,58,5.35,122,11.25,121,11.16,26,2.40,118,10.88,69,6.36,120,11.07,22,2.03
ham.(966),40,4.14,40,4.14,49,5.07,79,8.18,81,8.38,24,2.48,33,3.42,73,7.56,67,6.93,122,12.63,102,10.56,14,1.45,100,10.35,46,4.76,85,8.80,11,1.14
psych.(914),40,4.38,27,2.95,51,5.58,57,6.24,74,8.10,23,2.52,46,5.03,40,4.38,54,5.91,86,9.41,110,12.03,20,2.19,105,11.49,69,7.55,93,10.17,19,2.08
c. Symm.(1789),70,3.91,60,3.35,111,6.20,108,6.04,143,7.99,47,2.63,112,6.26,150,8.38,126,7.04,224,12.52,173,9.67,29,1.62,159,8.89,106,5.92,134,7.49,37,2.07
ditt.(196),9,4.59,7,3.57,8,4.08,14,7.14,13,6.63,5,2.55,10,5.10,10,5.10,14,7.14,31,15.82,20,10.20,7,3.57,17,8.67,8,4.08,19,9.69,4,2.04
PS. CYPR.(827),10,1.21,10,1.21,27,3.26,48,5.80,58,7.01,17,2.05,50,6.04,73,8.83,51,6.17,104,12.57,122,14.75,14,1.69,100,12.09,39,4.71,88,10.64,16,1.93
ad senat.(85),1,1.18,2,2.35,3,3.53,12,14.12,5,5.88,2,2.35,3,3.53,3,3.53,9,10.59,10,11.76,12,14.12,2,2.35,8,9.41,4,4.70,8,9.41,1,1.18
Sod.(167),3,1.80,3,1.80,8,4.79,11,6.59,16,9.58,7,4.19,10,5.99,11,6.59,7,4.19,25,14.97,17,10.18,2,1.20,18,10.78,14,8.38,12,7.18,3,1.80
Ion.(105),2,1.90,2,1.90,8,7.62,7,6.67,6,5.71,0,0,4,3.81,6,5.71,9,8.57,17,16.19,12,11.43,3,2.86,10,9.52,9,8.57,7,6.67,3,2.86
pasch.(69),0,0,1,1.45,0,0,2,2.90,2,2.90,2,2.90,2,2.90,1,1.45,6,8.69,9,13.04,6,8.69,2,2.90,10,14.49,3,4.35,18,26.09,5,7.25
resurr.(401),4,1.0,2,0.5,8,1.99,16,3.99,29,7.23,6,1.50,31,7.73,52,12.97,20,4.99,43,10.72,75,18.70,5,1.25,54,13.47,9,2.24,43,10.72,4,1.0
PS. PROBUS(11),2,18.18,0,0,0,0,3,27.27,0,0,1,9.09,2,18.18,0,0,0,0,0,0,3,27.27,0,0,0,0,0,0,0,0,0,0
HIER.(17),1,5.88,1,5.88,1,5.88,0,0,0,0,0,0,0,0,0,0,1,5.88,2,11.76,4,23.53,2,11.76,3,17.65,1,5.88,1,5.88,0,0
PAVL. NOL.(6168),321,5.20,178,2.88,410,6.65,506,8.20,498,8.07,154,2.50,254,4.12,330,5.35,538,8.72,769,12.47,648,10.50,108,1.75,404,6.55,284,4.60,627,10.16,139,2.25
carm.(6125),316,5.16,177,2.89,407,6.64,501,8.18,492,8.03,153,2.50,250,4.08,329,5.37,535,8.73,766,12.51,641,10.46,108,1.76,402,6.56,284,4.64,625,10.20,139,2.27
frg. epist. 32(43),5,11.63,1,2.32,3,6.98,5,11.63,6,13.95,1,2.32,4,9.30,1,2.32,3,6.98,3,6.98,7,16.28,0,0,2,4.65,0,0,2,4.65,0,0
AVG.(96),6,6.25,1,1.04,3,3.12,3,3.12,9,9.37,0,0,3,3.12,7,7.29,5,5.21,8,8.33,8,8.33,1,1.04,12,12.50,3,3.12,18,18.75,9,9.37
anth.(58),4,6.90,1,1.72,2,3.45,2,3.45,7,12.07,0,0,3,5.17,5,8.62,3,5.17,5,8.62,6,10.34,1,1.72,8,13.79,1,1.72,7,12.07,3,5.17
frg. mus.(3),1,33.33,0,0,0,0,0,0,0,0,0,0,0,0,1,33.33,0,0,0,0,0,0,0,0,0,0,0,0,1,33.33,0,0
prec.(8),0,0,0,0,0,0,1,12.50,1,12.50,0,0,0,0,0,0,1,12.50,1,12.50,0,0,0,0,2,25.00,0,0,2,25.00,0,0
Sibyll.(27),1,3.70,0,0,1,3.70,0,0,1,3.70,0,0,0,0,1,3.70,1,3.70,2,7.41,2,7.41,0,0,2,7.41,2,7.41,8,29.63,6,22.22
LICENT.(154),12,7.79,6,3.90,8,5.19,12,7.79,15,9.74,0,0,12,7.79,9,5.84,13,8.44,23,14.93,13,8.44,0,0,10,6.49,8,5.19,9,5.84,4,2.60
HIL. AREL.(2),0,0,0,0,0,0,0,0,0,0,0,0,0,0,0,0,0,0,0,0,0,0,0,0,0,0,0,0,0,0,2,100
CYTHER.(4),0,0,0,0,0,0,0,0,2,50.00,0,0,0,0,0,0,0,0,0,0,2,50.00,0,0,0,0,0,0,0,0,0,0
ACHILL.(4),0,0,0,0,0,0,1,25.00,0,0,0,0,0,0,0,0,0,0,0,0,1,25.00,0,0,1,25.00,0,0,1,25.00,0,0
PRISCILL.(1),0,0,0,0,0,0,0,0,0,0,0,0,0,0,0,0,0,0,0,0,0,0,0,0,0,0,0,0,0,0,1,100
ALCESTIS(121),3,2.48,4,3.30,7,5.78,9,7.44,5,4.13,7,5.78,8,6.61,6,4.96,8,6.61,17,14.05,9,7.44,3,2.48,10,8.26,9,7.44,11,9.09,5,4.13
PHOC.(73),2,2.74,1,1.37,3,4.11,9,12.33,8,10.96,1,1.37,5,6.85,6,8.22,3,4.11,8,10.96,10,13.70,1,1.37,4,5.48,3,4.11,8,10.96,1,1.37
carm. Verg.(73),2,2.74,1,1.37,3,4.11,9,12.33,8,10.96,1,1.37,5,6.85,6,8.22,3,4.11,8,10.96,10,13.70,1,1.37,4,5.48,3,4.11,8,10.96,1,1.37
CAEL. AVR.(6),0,0,0,0,1,16.67,0,0,1,16.67,0,0,0,0,0,0,0,0,0,0,0,0,0,0,1,16.67,0,0,1,16.67,2,33.33
SYMPH.(318),10,3.14,5,1.57,10,3.14,23,7.23,23,7.23,4,1.26,10,3.14,14,4.40,40,12.58,32,10.06,45,14.15,10,3.14,17,5.34,2,0.63,63,19.81,10,3.14
AVIAN.(5),0,0,0,0,0,0,0,0,0,0,0,0,0,0,1,20.00,2,40.00,0,0,2,40.00,0,0,0,0,0,0,0,0,0,0
MACR.(3),0,0,0,0,0,0,0,0,1,33.33,0,0,0,0,0,0,0,0,0,0,0,0,0,0,1,33.33,0,0,1,33.33,0,0
PAVL. BAET.(109),4,3.67,1,0.92,5,4.59,4,3.67,1,0.92,1,0.92,4,3.67,6,5.50,4,3.67,13,11.93,6,5.50,7,6.42,9,8.26,11,10.09,23,21.10,10,9.17
MAR. VICTOR(2018),51,2.53,47,2.33,63,3.12,91,4.51,136,6.74,41,2.03,95,4.71,134,6.64,86,4.26,209,10.36,247,12.24,40,1.98,236,11.69,175,8.67,253,12.54,114,5.65
CYPR. GALL.(5390),48,0.89,45,0.83,99,1.84,100,1.85,341,6.33,84,1.56,104,1.93,402,7.46,132,2.45,713,13.23,883,16.38,35,0.65,736,13.65,577,10.70,898,16.66,193,3.58
gen.(1498),6,0.4,13,0.87,29,1.93,32,2.14,86,5.74,18,1.20,33,2.20,94,6.27,46,3.07,158,10.55,285,19.02,11,0.73,203,13.55,93,6.21,325,21.69,66,4.40
exod.(1297),13,1.00,10,0.77,14,1.08,16,1.23,79,6.09,27,2.08,14,1.08,120,9.25,21,1.62,168,12.95,183,14.11,4,0.31,184,14.19,212,16.34,192,14.80,40,3.08
leu.(309),1,0.32,4,1.29,3,0.97,5,1.62,24,7.77,5,1.62,7,2.26,20,6.47,2,0.65,44,14.24,50,16.18,2,0.65,48,15.53,50,16.18,34,11.00,10,3.24
num.(765),5,0.65,4,0.52,14,1.83,8,1.04,61,7.97,4,0.52,13,1.70,62,8.10,14,1.83,110,14.38,146,19.08,3,0.39,94,12.29,78,10.20,126,16.47,23,3.01
deut.(161),0,0,1,0.62,0,0,1,0.62,7,4.35,4,2.48,3,1.86,15,9.32,4,2.48,28,17.39,23,14.28,0,0,19,11.80,21,13.04,29,18.01,6,3.73
Ios.(585),9,1.54,3,0.51,11,1.88,14,2.39,34,5.81,4,0.68,13,2.22,30,5.13,21,3.59,92,15.73,96,16.41,8,1.37,78,13.33,47,8.03,106,18.12,19,3.25
iud.(759),14,1.84,10,1.32,27,3.56,23,3.03,47,6.19,22,2.90,20,2.63,61,8.04,24,3.16,112,14.76,98,12.91,7,0.92,108,14.23,75,9.88,83,10.93,28,3.69
frg.(16),0,0,0,0,1,6.25,1,6.25,3,18.75,0,0,1,6.25,0,0,0,0,1,6.25,2,12.50,0,0,2,12.50,1,6.25,3,18.75,1,6.25
ORIENT.(180),12,6.67,9,5.00,20,11.11,11,6.11,11,6.11,4,2.22,5,2.78,6,3.33,30,16.67,13,7.22,16,8.89,3,1.67,8,4.44,4,2.22,25,13.89,3,1.67
carm. app.(180),12,6.67,9,5.00,20,11.11,11,6.11,11,6.11,4,2.22,5,2.78,6,3.33,30,16.67,13,7.22,16,8.89,3,1.67,8,4.44,4,2.22,25,13.89,3,1.67
SEDVL.(1736),59,3.40,43,2.48,96,5.53,102,5.87,195,11.23,41,2.36,53,3.05,125,7.20,114,6.57,275,15.84,212,12.21,9,0.52,104,5.99,120,6.91,171,9.85,17,0.98
carm. pasch.(1736),59,3.40,43,2.48,96,5.53,102,5.87,195,11.23,41,2.36,53,3.05,125,7.20,114,6.57,275,15.84,212,12.21,9,0.52,104,5.99,120,6.91,171,9.85,17,0.98
PAVL. PELL.(630),18,2.86,17,2.70,20,3.17,36,5.71,39,6.19,12,1.90,34,5.40,34,5.40,44,6.98,48,7.62,78,12.38,25,3.97,74,11.75,33,5.24,86,13.65,32,5.08
euch.(611),17,2.78,17,2.78,17,2.78,36,5.89,38,6.22,12,1.96,33,5.40,33,5.40,43,7.04,47,7.69,74,12.11,25,4.09,73,11.95,32,5.24,82,13.42,32,5.24
orat.(19),1,5.26,0,0,3,15.79,0,0,1,5.26,0,0,1,5.26,1,5.26,1,5.26,1,5.26,4,21.05,0,0,1,5.26,1,5.26,4,21.05,0,0
PROSP.(1884),49,2.60,45,2.39,68,3.61,64,3.40,103,5.47,72,3.82,77,4.09,92,4.88,104,5.52,210,11.15,166,8.81,80,4.25,179,9.50,143,7.59,274,14.54,158,8.39
ingrat. arg.(11),0,0,0,0,0,0,1,9.09,1,9.09,1,9.09,0,0,1,9.09,2,18.18,1,9.09,0,0,0,0,1,9.09,1,9.09,2,18.18,0,0
ingrat.(997),26,2.61,23,2.31,34,3.41,34,3.41,55,5.52,32,3.21,43,4.31,40,4.01,59,5.92,114,11.43,80,8.02,44,4.41,98,9.83,74,7.42,152,15.24,89,8.93
prou.(876),23,2.62,22,2.51,34,3.88,29,3.31,47,5.36,39,4.45,34,3.88,51,5.82,43,4.91,95,10.84,86,9.82,36,4.11,80,9.13,68,7.76,120,13.70,69,7.88
MART. CAP.(168),6,3.57,1,0.59,5,2.98,11,6.55,14,8.33,2,1.19,13,7.74,13,7.74,6,3.57,14,8.33,31,18.45,1,0.59,17,10.12,12,7.14,15,8.93,7,4.17
MEROB.(218),4,1.83,2,0.92,11,5.04,9,4.13,16,7.34,9,4.13,10,4.59,16,7.34,12,5.50,47,21.56,10,4.59,5,2.29,19,8.71,22,10.09,23,10.55,3,1.38
Christ.(30),0,0,0,0,1,3.33,0,0,4,13.33,0,0,3,10.00,1,3.33,0,0,8,26.67,2,6.67,0,0,3,10.00,7,23.33,0,0,1,3.33
poet.(188),4,2.13,2,1.06,10,5.32,9,4.79,12,6.38,9,4.79,7,3.72,15,7.98,12,6.38,39,20.74,8,4.25,5,2.66,16,8.51,15,7.98,23,12.23,2,1.06
AEGR. Perd.(282),6,2.13,4,1.42,11,3.90,31,10.99,15,5.32,7,2.48,15,5.32,16,5.67,15,5.32,34,12.06,24,8.51,4,1.42,24,8.51,30,10.64,33,11.70,13,4.61
SIDON.(2449),81,3.31,53,2.16,115,4.69,136,5.55,148,6.04,75,3.06,100,4.08,158,6.45,141,5.76,298,12.17,269,10.98,53,2.16,185,7.55,241,9.84,283,11.55,113,4.61
carm.(2449),81,3.31,53,2.16,115,4.69,136,5.55,148,6.04,75,3.06,100,4.08,158,6.45,141,5.76,298,12.17,269,10.98,53,2.16,185,7.55,241,9.84,283,11.55,113,4.61
RVST. HELP.(221),4,1.81,7,3.17,13,5.88,10,4.52,18,8.14,8,3.62,9,4.07,16,7.24,11,4.98,26,11.76,26,11.76,1,0.45,31,14.03,17,7.69,19,8.60,5,2.26
benef.(149),3,2.01,5,3.35,9,6.04,10,6.71,14,9.39,8,5.37,6,4.03,11,7.38,5,3.35,21,14.09,13,8.72,0,0,20,13.42,13,8.72,10,6.71,1,0.67
trist.(72),1,1.39,2,2.78,4,5.55,0,0,4,5.55,0,0,3,4.17,5,6.94,6,8.33,5,6.94,13,18.05,1,1.39,11,15.28,4,5.55,9,12.50,4,5.55
PAVL. PETRIC.(3726),50,1.34,64,1.72,110,2.95,90,2.41,185,4.96,125,3.35,139,3.73,237,6.36,198,5.31,462,12.40,340,9.12,151,4.05,416,11.16,342,9.18,494,13.26,323,8.67
Mart.(3621),50,1.38,63,1.74,110,3.04,87,2.40,180,4.97,123,3.40,133,3.67,227,6.27,197,5.44,449,12.40,325,8.97,149,4.11,403,11.13,331,9.14,480,13.26,314,8.67
uisit.(80),0,0,1,1.25,0,0,1,1.25,5,6.25,2,2.50,5,6.25,7,8.75,1,1.25,12,15.00,10,12.50,2,2.50,10,12.50,7,8.75,10,12.50,7,8.75
orant.(25),0,0,0,0,0,0,2,8.00,0,0,0,0,1,4.00,3,12.00,0,0,1,4.00,5,20.00,0,0,3,12.00,4,16.00,4,16.00,2,8.00
HONORAT.(12),0,0,2,16.67,0,0,0,0,1,8.33,0,0,0,0,1,8.33,1,8.33,2,16.67,0,0,0,0,1,8.33,1,8.33,2,16.67,1,8.33
DRAC.(5631),215,3.82,103,1.83,278,4.94,407,7.23,482,8.56,163,2.89,174,3.09,278,4.94,302,5.36,816,14.49,827,14.69,52,0.92,379,6.73,499,8.86,560,9.94,96,1.70
laud. dei(2324),79,3.40,41,1.76,119,5.12,182,7.83,186,8.00,67,2.88,83,3.57,116,4.99,138,5.94,317,13.64,341,14.67,27,1.16,190,8.17,158,6.80,229,9.85,51,2.19
Romul.(2332),80,3.43,42,1.80,108,4.63,138,5.92,183,7.85,77,3.30,72,3.09,115,4.93,110,4.72,365,15.65,319,13.68,22,0.94,157,6.73,293,12.56,216,9.26,35,1.50
Romul. fragm.(2),0,0,0,0,0,0,0,0,0,0,0,0,0,0,0,0,0,0,0,0,1,50.00,0,0,0,0,0,0,1,50.00,0,0
Orest.(973),56,5.75,20,2.05,51,5.24,87,8.94,113,11.61,19,1.95,19,1.95,47,4.83,54,5.55,134,13.77,166,17.06,3,0.31,32,3.29,48,4.93,114,11.72,10,1.03
RVFIN.(90),1,1.11,0,0,6,6.67,9,10.00,10,11.11,2,2.22,2,2.22,3,3.33,7,7.78,5,5.55,19,21.11,3,3.33,4,4.44,3,3.33,16,17.78,0,0
Ter. metr.(23),1,4.35,0,0,1,4.35,2,8.69,3,13.04,0,0,0,0,0,0,4,17.39,1,4.35,4,17.39,2,8.69,1,4.35,0,0,4,17.39,0,0
orat. num.(67),0,0,0,0,5,7.46,7,10.45,7,10.45,2,2.98,2,2.98,3,4.48,3,4.48,4,5.97,15,22.39,1,1.49,3,4.48,3,4.48,12,17.91,0,0
AGREST.(49),0,0,1,2.04,3,6.12,1,2.04,3,6.12,0,0,3,6.12,5,10.20,2,4.08,1,2.04,14,28.57,3,6.12,0,0,4,8.16,6,12.24,3,6.12
VICTORIN.(455),7,1.54,6,1.32,22,4.83,26,5.71,39,8.57,9,1.98,21,4.61,26,5.71,21,4.61,58,12.75,55,12.09,7,1.54,45,9.89,31,6.81,59,12.97,23,5.05
Christ.(137),3,2.19,5,3.65,8,5.84,6,4.38,20,14.60,2,1.46,4,2.92,7,5.11,4,2.92,24,17.52,21,15.33,0,0,10,7.30,13,9.49,8,5.84,2,1.46
lex dom.(212),2,0.94,1,0.47,10,4.72,16,7.55,12,5.66,4,1.89,11,5.19,13,6.13,13,6.13,25,11.79,22,10.38,6,2.83,23,10.85,10,4.72,28,13.21,16,7.55
uita dom.(106),2,1.89,0,0,4,3.77,4,3.77,7,6.60,3,2.83,6,5.66,6,5.66,4,3.77,9,8.49,12,11.32,1,0.94,12,11.32,8,7.55,23,21.70,5,4.72
FVLG.(16),5,31.25,0,0,1,6.25,3,18.75,0,0,0,0,1,6.25,0,0,2,12.50,0,0,2,12.50,0,0,0,0,1,6.25,0,0,1,6.25
mythol.(11),2,18.18,0,0,0,0,2,18.18,0,0,0,0,1,9.09,0,0,2,18.18,0,0,2,18.18,0,0,0,0,1,9.09,0,0,1,9.09
Virg. cont. 740(5),3,60.00,0,0,1,20.00,1,20.00,0,0,0,0,0,0,0,0,0,0,0,0,0,0,0,0,0,0,0,0,0,0,0,0
PRISC.(1400),22,1.57,20,1.43,31,2.21,69,4.93,102,7.28,30,2.14,47,3.36,70,5.00,81,5.78,120,8.57,213,15.21,53,3.78,133,9.50,86,6.14,234,16.71,89,6.36
periheg.(1087),18,1.65,16,1.47,28,2.57,49,4.51,84,7.73,23,2.11,40,3.68,55,5.06,65,5.98,92,8.46,168,15.45,42,3.86,96,8.83,61,5.61,182,16.74,68,6.25
Anast.(312),4,1.28,4,1.28,3,0.96,20,6.41,18,5.77,7,2.24,7,2.24,15,4.81,16,5.13,28,8.97,45,14.42,11,3.52,37,11.86,25,8.01,52,16.67,20,6.41
carm. frg.(1),0,0,0,0,0,0,0,0,0,0,0,0,0,0,0,0,0,0,0,0,0,0,0,0,0,0,0,0,0,0,1,100
FELIX(24),0,0,0,0,0,0,1,4.17,1,4.17,0,0,0,0,1,4.17,2,8.33,4,16.67,4,16.67,1,4.17,4,16.67,0,0,6,25.00,0,0
LVX.(166),6,3.61,5,3.01,7,4.22,10,6.02,10,6.02,4,2.41,2,1.20,6,3.61,11,6.63,16,9.64,25,15.06,3,1.81,20,12.05,10,6.02,16,9.64,15,9.04
FLORENT.(39),0,0,0,0,0,0,5,12.82,5,12.82,0,0,1,2.56,4,10.26,1,2.56,4,10.26,0,0,0,0,8,20.51,6,15.38,3,7.69,2,5.13
HIST. Apoll.(25),1,4.00,2,8.00,0,0,3,12.00,2,8.00,1,4.00,2,8.00,0,0,2,8.00,3,12.00,2,8.00,0,0,4,16.00,1,4.00,1,4.00,1,4.00
PARTHEN.(12),1,8.33,0,0,0,0,1,8.33,2,16.67,0,0,0,0,0,0,1,8.33,1,8.33,2,16.67,0,0,1,8.33,0,0,3,25.00,0,0
ALC. AVIT.(3305),21,0.63,46,1.39,69,2.09,77,2.33,126,3.81,49,1.48,99,2.99,182,5.51,153,4.63,328,9.92,373,11.28,78,2.36,483,14.61,289,8.74,611,18.49,321,9.71
carm.(3218),21,0.65,44,1.37,68,2.11,74,2.30,122,3.79,49,1.52,97,3.01,177,5.50,149,4.63,318,9.88,362,11.25,76,2.36,471,14.64,280,8.70,595,18.49,315,9.79
carm. app.(87),0,0,2,2.30,1,1.15,3,3.45,4,4.60,0,0,2,2.30,5,5.75,4,4.60,10,11.49,11,12.64,2,2.30,12,13.79,9,10.34,16,18.39,6,6.90
ENNOD.(457),13,2.84,10,2.19,19,4.16,13,2.84,32,7.00,7,1.53,10,2.19,22,4.81,17,3.72,66,14.44,74,16.19,11,2.41,38,8.31,14,3.06,90,19.69,21,4.59
carm. 1(234),9,3.85,5,2.14,9,3.85,7,2.99,18,7.69,4,1.71,3,1.28,13,5.55,9,3.85,43,18.38,29,12.39,4,1.71,20,8.55,6,2.56,41,17.52,14,5.98
carm. 2(202),4,1.98,5,2.47,9,4.45,5,2.47,12,5.94,3,1.48,7,3.46,9,4.45,8,3.96,22,10.89,38,18.81,6,2.97,17,8.41,7,3.46,43,21.29,7,3.46
dict.(4),0,0,0,0,0,0,0,0,2,50.00,0,0,0,0,0,0,0,0,0,0,1,25.00,0,0,0,0,0,0,1,25.00,0,0
epist.(1),0,0,0,0,0,0,0,0,0,0,0,0,0,0,0,0,0,0,0,0,0,0,0,0,0,0,0,0,1,100,0,0
opusc.(6),0,0,0,0,1,16.67,0,0,0,0,0,0,0,0,0,0,0,0,1,16.67,1,16.67,1,16.67,1,16.67,0,0,1,16.67,0,0
Cast.(10),0,0,0,0,0,0,1,10.00,0,0,0,0,0,0,0,0,0,0,0,0,5,50.00,0,0,0,0,1,10.00,3,30.00,0,0
BOETH.(44),1,2.27,1,2.27,3,6.82,1,2.27,5,11.36,1,2.27,3,6.82,5,11.36,1,2.27,8,18.18,3,6.82,1,2.27,3,6.82,4,9.09,3,6.82,1,2.27
cons.(28),0,0,1,3.57,0,0,1,3.57,4,14.28,1,3.57,3,10.71,3,10.71,1,3.57,4,14.28,2,7.14,0,0,1,3.57,4,14.28,3,10.71,0,0
elog.(16),1,6.25,0,0,3,18.75,0,0,1,6.25,0,0,0,0,2,12.50,0,0,4,25.00,1,6.25,1,6.25,2,12.50,0,0,0,0,1,6.25
CYPR. TOLON.(14),0,0,1,7.14,1,7.14,0,0,3,21.43,1,7.14,0,0,1,7.14,1,7.14,1,7.14,1,7.14,0,0,1,7.14,1,7.14,1,7.14,1,7.14
THEOD.(2),1,50.00,0,0,0,0,1,50.00,0,0,0,0,0,0,0,0,0,0,0,0,0,0,0,0,0,0,0,0,0,0,0,0
REMIG. REM.(3),0,0,0,0,1,33.33,0,0,0,0,0,0,0,0,0,0,0,0,0,0,1,33.33,0,0,0,0,0,0,0,0,1,33.33
VEREC.(212),11,5.19,4,1.89,19,8.96,16,7.55,21,9.90,5,2.36,8,3.77,12,5.66,7,3.30,27,12.73,23,10.85,3,1.41,11,5.19,8,3.77,32,15.09,5,2.36
MAXIM.(23),0,0,1,4.35,0,0,0,0,3,13.04,0,0,1,4.35,1,4.35,2,8.69,6,26.09,0,0,1,4.35,3,13.04,1,4.35,3,13.04,1,4.35
app.(23),0,0,1,4.35,0,0,0,0,3,13.04,0,0,1,4.35,1,4.35,2,8.69,6,26.09,0,0,1,4.35,3,13.04,1,4.35,3,13.04,1,4.35
ARATOR(2336),127,5.44,58,2.48,170,7.28,247,10.57,250,10.70,87,3.72,130,5.56,122,5.22,79,3.38,382,16.35,271,11.60,3,0.13,106,4.54,188,8.05,108,4.62,8,0.34
apost.(2327),127,5.46,58,2.49,170,7.30,246,10.57,248,10.66,87,3.74,130,5.59,122,5.24,79,3.39,381,16.37,267,11.47,3,0.13,106,4.55,188,8.08,108,4.64,7,0.3
praef.(9),0,0,0,0,0,0,1,11.11,2,22.22,0,0,0,0,0,0,0,0,1,11.11,4,44.44,0,0,0,0,0,0,0,0,1,11.11
CORIPP.(6301),157,2.49,87,1.38,279,4.43,304,4.82,540,8.57,108,1.71,184,2.92,250,3.97,280,4.44,1047,16.62,1093,17.35,86,1.36,482,7.65,385,6.11,832,13.20,187,2.97
Ioh.(4631),112,2.42,48,1.04,171,3.69,220,4.75,440,9.50,62,1.34,85,1.83,189,4.08,167,3.61,847,18.29,933,20.15,20,0.43,344,7.43,275,5.94,615,13.28,103,2.22
Anast.(51),4,7.84,1,1.96,7,13.72,2,3.92,2,3.92,2,3.92,1,1.96,4,7.84,1,1.96,4,7.84,3,5.88,1,1.96,2,3.92,6,11.76,9,17.65,2,3.92
Iust.(1619),41,2.53,38,2.35,101,6.24,82,5.06,98,6.05,44,2.72,98,6.05,57,3.52,112,6.92,196,12.11,157,9.70,65,4.01,136,8.40,104,6.42,208,12.85,82,5.06
MART. BRAC.(28),1,3.57,0,0,1,3.57,1,3.57,1,3.57,0,0,1,3.57,4,14.28,5,17.86,1,3.57,3,10.71,0,0,1,3.57,5,17.86,3,10.71,1,3.57
basil.(22),1,4.54,0,0,1,4.54,1,4.54,0,0,0,0,1,4.54,4,18.18,5,22.73,1,4.54,0,0,0,0,1,4.54,3,13.64,3,13.64,1,4.54
epitaph.(6),0,0,0,0,0,0,0,0,1,16.67,0,0,0,0,0,0,0,0,0,0,3,50.00,0,0,0,0,2,33.33,0,0,0,0
VEN. FORT.(2483),268,10.79,93,3.74,142,5.72,339,13.65,277,11.15,56,2.25,137,5.52,122,4.91,151,6.08,168,6.77,316,12.73,40,1.61,140,5.64,59,2.38,130,5.23,45,1.81
Mart.(2242),261,11.64,90,4.01,128,5.71,319,14.23,254,11.33,42,1.87,122,5.44,106,4.73,140,6.24,150,6.69,291,12.98,32,1.43,122,5.44,46,2.05,107,4.77,32,1.43
carm. 2(54),0,0,1,1.85,4,7.41,1,1.85,4,7.41,2,3.70,5,9.26,2,3.70,4,7.41,2,3.70,6,11.11,4,7.41,2,3.70,3,5.55,8,14.81,6,11.11
carm. 5(51),1,1.96,2,3.92,1,1.96,3,5.88,4,7.84,5,9.80,3,5.88,3,5.88,3,5.88,0,0,2,3.92,3,5.88,8,15.69,1,1.96,5,9.80,7,13.72
carm. 6(118),5,4.24,0,0,9,7.63,16,13.56,12,10.17,7,5.93,5,4.24,9,7.63,4,3.39,13,11.02,15,12.71,1,0.85,6,5.08,8,6.78,8,6.78,0,0
carm. app.(1),1,100,0,0,0,0,0,0,0,0,0,0,0,0,0,0,0,0,0,0,0,0,0,0,0,0,0,0,0,0,0,0
carm. spur.(17),0,0,0,0,0,0,0,0,3,17.65,0,0,2,11.76,2,11.76,0,0,3,17.65,2,11.76,0,0,2,11.76,1,5.88,2,11.76,0,0
SEV. MALAC.(592),3,0.51,7,1.18,9,1.52,13,2.19,15,2.53,6,1.01,13,2.19,35,5.91,11,1.86,66,11.15,64,10.81,10,1.69,87,14.69,63,10.64,83,14.02,105,17.74
SYLL. Elnon.(73),1,1.37,1,1.37,3,4.11,1,1.37,6,8.22,2,2.74,1,1.37,3,4.11,1,1.37,11,15.07,6,8.22,3,4.11,8,10.96,9,12.33,12,16.44,5,6.85
COLVMB.(124),3,2.42,2,1.61,9,7.26,11,8.87,7,5.64,1,0.81,5,4.03,7,5.64,6,4.84,18,14.52,22,17.74,3,2.42,6,4.84,3,2.42,17,13.71,4,3.22
Hun.(17),0,0,0,0,0,0,2,11.76,2,11.76,0,0,2,11.76,0,0,0,0,3,17.65,6,35.29,0,0,1,5.88,0,0,1,5.88,0,0
Seth.(77),2,2.60,1,1.30,6,7.79,9,11.69,4,5.19,1,1.30,3,3.90,6,7.79,4,5.19,7,9.09,14,18.18,1,1.30,4,5.19,1,1.30,13,16.88,1,1.30
nav.(24),0,0,1,4.17,3,12.50,0,0,0,0,0,0,0,0,1,4.17,1,4.17,8,33.33,1,4.17,2,8.33,0,0,2,8.33,2,8.33,3,12.50
Fidol.(6),1,16.67,0,0,0,0,0,0,1,16.67,0,0,0,0,0,0,1,16.67,0,0,1,16.67,0,0,1,16.67,0,0,1,16.67,0,0
CARM. litter.(92),2,2.17,2,2.17,2,2.17,1,1.09,11,11.96,1,1.09,5,5.43,3,3.26,6,6.52,8,8.69,17,18.48,0,0,8,8.69,1,1.09,19,20.65,6,6.52
SISEB.(61),1,1.64,0,0,3,4.92,0,0,5,8.20,3,4.92,4,6.56,6,9.84,3,4.92,4,6.56,7,11.47,2,3.28,7,11.47,4,6.56,7,11.47,5,8.20
carm.(61),1,1.64,0,0,3,4.92,0,0,5,8.20,3,4.92,4,6.56,6,9.84,3,4.92,4,6.56,7,11.47,2,3.28,7,11.47,4,6.56,7,11.47,5,8.20
ISID.(5),0,0,0,0,0,0,1,20.00,1,20.00,0,0,0,0,0,0,0,0,1,20.00,0,0,0,0,1,20.00,1,20.00,0,0,0,0
EVG. TOLET.(975),25,2.56,13,1.33,37,3.79,67,6.87,61,6.26,22,2.26,34,3.49,40,4.10,61,6.26,109,11.18,176,18.05,22,2.26,92,9.43,51,5.23,119,12.20,46,4.72
carm.(216),3,1.39,0,0,3,1.39,13,6.02,8,3.70,0,0,9,4.17,8,3.70,10,4.63,10,4.63,48,22.22,3,1.39,37,17.13,6,2.78,40,18.52,18,8.33
carm. app.(64),0,0,1,1.56,1,1.56,4,6.25,5,7.81,0,0,2,3.12,2,3.12,5,7.81,5,7.81,13,20.31,1,1.56,7,10.94,2,3.12,9,14.06,7,10.94
hex.(660),20,3.03,10,1.51,32,4.85,46,6.97,46,6.97,22,3.33,22,3.33,29,4.39,45,6.82,93,14.09,103,15.61,17,2.57,46,6.97,42,6.36,67,10.15,20,3.03
monost.(35),2,5.71,2,5.71,1,2.86,4,11.43,2,5.71,0,0,1,2.86,1,2.86,1,2.86,1,2.86,12,34.28,1,2.86,2,5.71,1,2.86,3,8.57,1,2.86
WAMBA(4),0,0,0,0,0,0,0,0,0,0,0,0,0,0,0,0,0,0,0,0,1,25.00,0,0,1,25.00,2,50.00,0,0,0,0
CARM. nav.(16),0,0,1,6.25,0,0,1,6.25,0,0,1,6.25,0,0,0,0,2,12.50,6,37.50,2,12.50,1,6.25,0,0,0,0,1,6.25,1,6.25
INC. uers.(52),3,5.77,1,1.92,2,3.85,3,5.77,3,5.77,2,3.85,3,5.77,1,1.92,3,5.77,3,5.77,7,13.46,1,1.92,4,7.69,1,1.92,10,19.23,5,9.61
ANTH. Lat.(4989),135,2.70,117,2.34,196,3.93,310,6.21,363,7.28,113,2.26,208,4.17,277,5.55,294,5.89,535,10.72,637,12.77,129,2.58,431,8.64,288,5.77,692,13.87,263,5.27
CE(5141),118,2.29,106,2.06,191,3.71,259,5.04,313,6.09,119,2.31,199,3.87,252,4.90,285,5.54,429,8.34,584,11.36,158,3.07,475,9.24,282,5.48,603,11.73,332,6.46
Bcheler - Lommatzsch(3579),81,2.26,78,2.18,135,3.77,194,5.42,223,6.23,86,2.40,154,4.30,186,5.20,197,5.50,323,9.02,407,11.37,110,3.07,332,9.28,187,5.22,426,11.90,226,6.31
suppl.(1562),37,2.37,28,1.79,56,3.58,65,4.16,90,5.76,33,2.11,45,2.88,66,4.22,88,5.63,106,6.79,177,11.33,48,3.07,143,9.15,95,6.08,177,11.33,106,6.79
Sapidus(739),12,1.62,15,2.03,23,3.11,31,4.19,44,5.95,21,2.84,40,5.41,39,5.28,65,8.80,65,8.80,62,8.39,31,4.19,100,13.5,64,8.66,111,15.0,16,2.17
